a)
Intensität | Anzahl
-----------+-------
0          | 1
1          | 2
2          | 1 
3          | 0
4          | 0
5          | 0
6          | 2
7          | 2

b)
Intensität | Normalisiert
-----------+-------------
0          | 0.125
1          | 0.25
2          | 0.125
3          | 0 
4          | 0
5          | 0 
6          | 0.25
7          | 0.25

c)
Intensität | Kummuliert
-----------+-------------
0          | 0.125
1          | 0.375
2          | 0.5
3          | 0.5 
4          | 0.5
5          | 0.5
6          | 0.75
7          | 1